TYPE ID WKT
ZONE 001 POLYGON((286950 4668911,288500 4567571,372960 4561980,369344 4674234,286950 4668911))
ZONE 002 POLYGON((360000 5000000,360000 4500000,450000 4500000,450000 5000000,360000 5000000))
ZONE 003 POLYGON((450000 5000000,450000 4500000,550000 4500000,550000 5000000,450000 5000000))
ZONE 004 POLYGON((550000 5000000,550000 4500000,630000 4500000,630000 5000000,550000 5000000))
ZONE 005 POLYGON((630000 5000000,630000 4500000,670000 4500000,670000 5000000,630000 5000000))
